16:51:54.619 [main] DEBUG ftxAjuntament - Mataro, 10, SrAlcalde
16:51:54.620 [main] DEBUG ftxAjuntament - hem fet una defuncio
16:51:54.620 [main] DEBUG ftxAjuntament - Mataro, 9, SrAlcalde
16:51:54.621 [main] DEBUG ftxAjuntament - hem creat un nou pooble2
16:51:54.621 [main] DEBUG ftxAjuntament - Mataro, 9, SrAlcalde
16:51:54.622 [main] DEBUG ftxAjuntament - hem fet un naix a poble
16:51:54.622 [main] DEBUG ftxAjuntament - Mataro, 10, SrAlcalde
16:51:54.623 [main] DEBUG ftxAjuntament - hem fet una defuncio a poble2
16:51:54.623 [main] DEBUG ftxAjuntament - Mataro, 9, SrAlcalde
16:51:54.624 [main] DEBUG ftxAjuntament - hem fet una defuncio a poble
16:51:54.625 [main] DEBUG ftxAjuntament - Mataro, 8, SrAlcalde
16:57:47.439 [main] DEBUG ftxAjuntament - Mataro, 10, SrAlcalde
16:57:47.439 [main] DEBUG ftxAjuntament - hem fet una defuncio
16:57:47.440 [main] DEBUG ftxAjuntament - Mataro, 9, SrAlcalde
16:57:47.440 [main] DEBUG ftxAjuntament - hem creat un nou pooble2
16:57:47.440 [main] DEBUG ftxAjuntament - Mataro, 9, SrAlcalde
16:57:47.441 [main] DEBUG ftxAjuntament - hem fet un naix a poble
16:57:47.441 [main] DEBUG ftxAjuntament - Mataro, 10, SrAlcalde
16:57:47.441 [main] DEBUG ftxAjuntament - hem fet una defuncio a poble2
16:57:47.442 [main] DEBUG ftxAjuntament - Mataro, 9, SrAlcalde
16:57:47.442 [main] DEBUG ftxAjuntament - hem fet una defuncio a poble
16:57:47.442 [main] DEBUG ftxAjuntament - Mataro, 8, SrAlcalde
